<svg id="SvgjsSvg1001" width="288" height="288" xmlns="http://www.w3.org/2000/svg" version="1.1" xmlns:xlink="http://www.w3.org/1999/xlink" xmlns:svgjs="http://svgjs.com/svgjs"><defs id="SvgjsDefs1002"></defs><g id="SvgjsG1008" transform="matrix(1,0,0,1,0,0)"><svg xmlns="http://www.w3.org/2000/svg" width="288" height="288" version="1.0" viewBox="0 0 512 512"><g transform="matrix(.1 0 0 -.1 0 512)" fill="#06092b" class="color000 svgShape"><path d="M825 4935 l-25 -24 0 -1286 0 -1286 -29 -37 c-16 -20 -34 -52 -40-71 -16 -50 -16 -1848 1 -1905 16 -55 99 -138 154 -154 32 -9 422 -12 1676
-12 1846 0 1693 -7 1771 80 24 26 49 66 55 88 17 54 17 1374 1 1423 -6 19 -24
51 -40 71 l-29 37 0 1446 0 1446 -25 24 c-23 24 -29 25 -160 25 l-135 0 0 55
c0 46 -4 60 -25 80 l-24 25 -1551 0 -1551 0 -24 -25z m3015 -1575 l0 -1440
-373 0 c-315 0 -376 2 -394 15 -12 8 -96 105 -188 215 -119 142 -179 207 -209
223 l-41 22 -837 3 -838 2 0 1200 0 1200 1440 0 1440 0 0 -1440z m320 -80 l0
-1360 -80 0 -80 0 0 1360 0 1360 80 0 80 0 0 -1360z m-1553 -1055 c12 -8 95
-104 186 -212 115 -138 178 -206 208 -223 l44 -25 578 -5 579 -5 19 -24 c18
-22 19 -49 19 -693 l0 -669 -25 -24 -24 -25 -1631 0 -1631 0 -24 25 -25 24 0
911 0 911 25 24 24 25 828 0 c719 0 831 -2 850 -15z" fill="#06092b" class="color000 svgShape"></path><path d="M1145 4615l-25-24 0-991 0-991 25-24 24-25 1231 0 1231 0 24 25 25 24 0 991 0 991-25 24-24 25-1231 0-1231 0-24-25zm455-295l0-160-160 0-160 0 0 160 0 160 160 0 160 0 0-160zm480 0l0-160-160 0-160 0 0 160 0 160 160 0 160 0 0-160zm480 0l0-160-160 0-160 0 0 160 0 160 160 0 160 0 0-160zm480 0l0-160-160 0-160 0 0 160 0 160 160 0 160 0 0-160zm480 0l0-160-160 0-160 0 0 160 0 160 160 0 160 0 0-160zm-1920-480l0-160-160 0-160 0 0 160 0 160 160 0 160 0 0-160zm480 0l0-160-160 0-160 0 0 160 0 160 160 0 160 0 0-160zm480 0l0-160-160 0-160 0 0 160 0 160 160 0 160 0 0-160zm480 0l0-160-160 0-160 0 0 160 0 160 160 0 160 0 0-160zm480 0l0-160-160 0-160 0 0 160 0 160 160 0 160 0 0-160zm-1920-480l0-160-160 0-160 0 0 160 0 160 160 0 160 0 0-160zm480 0l0-160-160 0-160 0 0 160 0 160 160 0 160 0 0-160zm480 0l0-160-160 0-160 0 0 160 0 160 160 0 160 0 0-160zm480 0l0-160-160 0-160 0 0 160 0 160 160 0 160 0 0-160zm480 0l0-160-160 0-160 0 0 160 0 160 160 0 160 0 0-160zm-1920-480l0-160-160 0-160 0 0 160 0 160 160 0 160 0 0-160zm480 0l0-160-160 0-160 0 0 160 0 160 160 0 160 0 0-160zm480 0l0-160-160 0-160 0 0 160 0 160 160 0 160 0 0-160zm480 0l0-160-160 0-160 0 0 160 0 160 160 0 160 0 0-160zm480 0l0-160-160 0-160 0 0 160 0 160 160 0 160 0 0-160zM1625 1415l-25-24 0-351 0-351 25-24c32-33 78-33 110 0 24 23 25 29 25 160l0 135 135 0c131 0 137 1 160 25 25 24 25 26 25 215 0 257 17 240-240 240-189 0-191 0-215-25zm295-215l0-80-80 0-80 0 0 80 0 80 80 0 80 0 0-80zM2265 1415l-25-24 0-351 0-351 25-24c32-33 78-33 110 0 24 24 25 28 26 187l0 163 89-177c49-97 98-182 109-188 33-17 71-11 96 15l25 24 0 351 0 351-25 24c-15 16-36 25-55 25-19 0-40-9-55-25-24-24-25-28-26-187l0-163-89 177c-49 97-98 182-109 188-33 17-71 11-96-15zM2905 1415l-25-24 0-351 0-351 25-24 24-25 271 0 271 0 24 25c25 24 25 26 25 215 0 189 0 191-25 215-23 24-31 25-135 25-104 0-112-1-135-25-33-32-33-78 0-110 20-21 34-25 80-25l55 0 0-80 0-80-160 0-160 0 0 240 0 240 175 0c173 0 176 0 200 25 16 15 25 36 25 55 0 19-9 40-25 55l-24 25-231 0-231 0-24-25z" fill="#06092b" class="color000 svgShape"></path></g></svg></g></svg>